{
    "355374": [[59, 84]],
    "355381": [[1, 358]],
    "355418": [[1, 41]],
    "355419": [[1, 98]],
    "355429": [[42, 89]],
    "355435": [[42, 84]],
    "355442": [[1, 22]],
    "355443": [[1, 240]],
    "355444": [[1, 153]],
    "355445": [[1, 242]],
    "355454": [[38, 118]],
    "355455": [[1, 40]],
    "355456": [[1, 501]],
    "355558": [[122, 409]],
    "355559": [[1, 162]],
    "355679": [[27, 85]],
    "355680": [[1, 1651]],
    "355768": [[82, 126]],
    "355769": [[1, 541]],
    "355862": [[121, 133]],
    "355863": [[1, 14]],
    "355870": [[31, 67]],
    "355871": [[1, 5]],
    "355872": [
      [1, 738],
      [758, 995],
      [997, 1217]
    ],
    "355892": [[14, 197]],
    "355912": [[43, 200]],
    "355913": [[1, 106]],
    "355921": [[38, 442]],
    "355933": [[75, 448]],
    "355942": [[24, 189], [193, 213]],
    "355988": [[43, 80], [85, 90]],
    "355989": [[1, 24]],
    "355998": [[1, 35]],
    "355999": [[1, 9]],
    "356004": [[1, 19]],
    "356005": [[1, 187]],
    "356043": [[1, 65]],
    "356071": [[37, 191]],
    "356074": [[1, 26]],
    "356075": [[1, 125]],
    "356076": [[1, 153]],
    "356077": [[1, 472]],
    "356135": [[46, 71]],
    "356309": [[61, 184]],
    "356316": [[45, 185]],
    "356322": [[1, 19]],
    "356323": [[1, 67], [69, 650]],
    "356371": [[41, 50], [67, 72]],
    "356375": [[35, 77], [101, 125]],
    "356378": [
      [8, 208],
      [210, 219],
      [221, 304]
    ],
    "356381": [[1, 1193]],
    "356383": [[1, 33]],
    "356385": [[1, 30]],
    "356386": [[1, 122]],
    "356426": [[39, 60]],
    "356428": [[1, 300]],
    "356433": [[1, 310]],
    "356434": [[1, 13]],
    "356435": [[1, 3], [8, 8]],
    "356446": [[10, 623]],
    "356523": [[32, 410], [412, 898]],
    "356531": [[1, 56]],
    "356563": [
      [36, 113],
      [117, 164],
      [168, 177],
      [181, 191],
      [193, 194],
      [199, 343]
    ],
    "356568": [[42, 64]],
    "356569": [[1, 251]],
    "356570": [[1, 98]],
    "356576": [[58, 240]],
    "356578": [[1, 865]],
    "356580": [[1, 51]],
    "356582": [[7, 104]],
    "356614": [[1, 10], [16, 19], [27, 62]],
    "356615": [[1, 1297]],
    "356619": [[1, 173]],
    "356810": [[44, 163]],
    "356811": [[1, 44]],
    "356812": [[1, 107]],
    "356813": [[1, 54]],
    "356814": [
      [1, 305],
      [307, 309],
      [311, 366],
      [368, 672]
    ],
    "356815": [[1, 54], [176, 219]],
    "356824": [[1, 66]],
    "356908": [[1, 26]],
    "356919": [[29, 116]],
    "356937": [[20, 138]],
    "356946": [[1, 129]],
    "356947": [[1, 350]],
    "356948": [[1, 88]],
    "356949": [[1, 94]],
    "356951": [[1, 274]],
    "356954": [[1, 364]],
    "356955": [[1, 380]],
    "356956": [[1, 109]],
    "356968": [[81, 252]],
    "356969": [[1, 236]],
    "356970": [[1, 366]],
    "356998": [[1, 5]],
    "356999": [[1, 58]],
    "357000": [[1, 50]],
    "357001": [[1, 183]],
    "357079": [[1, 22]],
    "357080": [[1, 616]],
    "357081": [[1, 759]],
    "357101": [[54, 103]],
    "357102": [[1, 13], [43, 134]],
    "357104": [[1, 4]],
    "357106": [[1, 60]],
    "357112": [[1, 519]],
    "357268": [[70, 143]],
    "357271": [[1, 20], [22, 1570]],
    "357328": [[44, 105]],
    "357329": [[1, 668]],
    "357330": [[1, 157]],
    "357331": [[1, 23]],
    "357332": [[1, 430]],
    "357333": [[1, 207]],
    "357401": [[48, 664]],
    "357406": [[50, 174]],
    "357438": [[35, 230]],
    "357440": [[1, 354]],
    "357441": [[1, 83]],
    "357442": [[1, 1373]],
    "357447": [[40, 50]],
    "357472": [[34, 60]],
    "357478": [[43, 50]],
    "357479": [[1, 1046]],
    "357482": [[1, 5], [21, 220]],
    "357538": [[39, 63]],
    "357542": [[1, 11], [13, 252]],
    "357550": [[1, 36]],
    "357610": [[63, 253]],
    "357611": [[1, 412]],
    "357612": [[1, 736]],
    "357613": [[1, 256]],
    "357688": [[1, 380]],
    "357696": [[31, 319], [341, 410]],
    "357697": [[1, 39]],
    "357698": [[1, 63]],
    "357699": [[1, 30]],
    "357700": [[1, 757]],
    "357701": [[1, 310]],
    "357705": [[1, 202]],
    "357706": [[1, 161]],
    "357720": [[32, 92]],
    "357732": [[30, 157]],
    "357734": [[1, 300]],
    "357735": [
      [1, 387],
      [389, 821],
      [823, 947],
      [949, 1126]
    ],
    "357754": [[29, 145]],
    "357756": [[1, 425]],
    "357757": [[1, 9]],
    "357758": [[1, 85]],
    "357759": [[1, 70]],
    "357766": [[10, 124]],
    "357777": [[1, 85]],
    "357778": [[1, 359]],
    "357779": [[1, 74]],
    "357781": [[1, 10]],
    "357802": [[43, 206]],
    "357803": [[1, 153]],
    "357804": [[1, 23]],
    "357805": [[1, 88]],
    "357806": [[1, 56]],
    "357807": [[1, 244]],
    "357808": [[1, 17]],
    "357809": [[1, 41]],
    "357812": [[1, 50]],
    "357813": [[1, 293]],
    "357814": [[1, 212]],
    "357815": [[1, 944]],
    "357898": [[1, 313]],
    "357899": [[1, 637]],
    "357900": [[1, 516]],
    "359569": [[1, 83]],
    "359571": [
      [1, 4],
      [7, 28],
      [30, 39],
      [41, 50],
      [52, 61],
      [63, 72],
      [74, 83],
      [85, 94],
      [96, 105],
      [107, 116],
      [118, 127],
      [129, 138],
      [140, 149],
      [151, 160],
      [162, 169]
    ],
    "359575": [
      [1, 13],
      [15, 24],
      [26, 35],
      [37, 46],
      [48, 57],
      [59, 68],
      [70, 89]
    ],
    "359595": [[17, 289]],
    "359597": [[1, 94]],
    "359602": [[1, 74]],
    "359609": [[1, 25]],
    "359612": [[1, 12]],
    "359661": [[42, 233]],
    "359685": [[1, 132]],
    "359686": [[1, 934]],
    "359691": [[19, 139]],
    "359693": [[1, 604]],
    "359694": [[1, 1080]],
    "359699": [[28, 1883]],
    "359718": [[1, 199], [202, 368]],
    "359750": [[52, 186]],
    "359751": [[15, 1007]],
    "359762": [[44, 266]],
    "359763": [[1, 410], [412, 459]],
    "359764": [[28, 1111]],
    "359776": [[104, 432]],
    "359806": [[42, 410]],
    "359808": [[1, 46]],
    "359809": [[1, 43]],
    "359810": [[1, 183]],
    "359812": [[1, 227]],
    "359814": [[1, 366]],
    "359870": [[2, 7]],
    "359871": [[1, 228]],
    "359887": [[30, 502]],
    "359899": [[19, 305]],
    "359903": [[1, 12]],
    "359998": [
      [24, 757],
      [759, 759],
      [761, 785],
      [787, 1918]
    ],
    "360017": [[42, 81]],
    "360019": [[1, 153], [155, 1489]],
    "360075": [[20, 429], [462, 809]],
    "360090": [[1, 794]],
    "360116": [[77, 432]],
    "360125": [
      [132, 195],
      [200, 262],
      [264, 324]
    ],
    "360126": [[1, 35], [37, 370]],
    "360127": [[1, 201]],
    "360128": [[1, 163]],
    "360130": [[87, 91]],
    "360131": [[1, 378]],
    "360141": [[25, 775]],
    "360224": [[43, 259]],
    "360225": [[1, 169], [171, 356]],
    "360295": [[35, 771], [774, 1475]],
    "360296": [[1, 519]],
    "360327": [[32, 383]],
    "360390": [[5, 36], [38, 76]],
    "360391": [[1, 4]],
    "360392": [[1, 61]],
    "360393": [[1, 124]],
    "360400": [[40, 119]],
    "360413": [[37, 126]],
    "360428": [[50, 123]],
    "360432": [[1, 28]],
    "360435": [[1, 37], [43, 53]],
    "360437": [[1, 40]],
    "360438": [[1, 6]],
    "360458": [[45, 215], [234, 246]],
    "360459": [[1, 1332]],
    "360460": [[1, 1077]],
    "360486": [[45, 322]],
    "360490": [[8, 936], [940, 1187]],
    "360491": [[3, 157], [159, 179]],
    "360737": [[10, 27]],
    "360761": [[34, 190]],
    "360794": [[37, 713]],
    "360795": [[1, 395]],
    "360797": [[1, 5]],
    "360820": [[1, 885]],
    "360825": [[1, 358]],
    "360826": [[1, 91], [93, 119]],
    "360856": [[42, 97]],
    "360874": [[31, 82]],
    "360876": [[1, 341]],
    "360887": [[12, 134]],
    "360888": [[1, 289]],
    "360889": [[1, 36]],
    "360890": [[1, 216], [219, 506]],
    "360892": [[1, 296]],
    "360895": [[1, 700]],
    "360919": [[39, 836]],
    "360920": [[1, 4]],
    "360921": [[1, 218]],
    "360927": [
      [37, 331],
      [333, 581],
      [583, 1930]
    ],
    "360941": [[1, 72]],
    "360942": [[1, 344]],
    "360945": [[1, 91]],
    "360946": [[1, 364]],
    "360948": [[1, 119]],
    "360950": [
      [1, 179],
      [181, 468],
      [470, 718]
    ],
    "360951": [[1, 190]],
    "360991": [[41, 270]],
    "360992": [[1, 99]],
    "361020": [[41, 439]],
    "361044": [[42, 166]],
    "361045": [[1, 322], [325, 947]],
    "361050": [[1, 10]],
    "361052": [[1, 65]],
    "361054": [[1, 461]],
    "361083": [[6, 59]],
    "361091": [[38, 418]],
    "361105": [[41, 448]],
    "361106": [[1, 31]],
    "361107": [[1, 156]],
    "361108": [[1, 7]],
    "361110": [[1, 197]],
    "361188": [[46, 186]],
    "361193": [[1, 29]],
    "361195": [[1, 20]],
    "361197": [[1, 960], [991, 2177]],
    "361223": [[36, 730]],
    "361239": [[35, 1090]],
    "361240": [[1, 1015]],
    "361272": [[1, 125]],
    "361280": [[1, 267]],
    "361283": [[1, 26]],
    "361284": [[1, 36]],
    "361297": [[38, 970]],
    "361303": [[36, 2275]],
    "361318": [[34, 490]],
    "361319": [[1, 162]],
    "361320": [[1, 382]],
    "361333": [[36, 337]],
    "361361": [[60, 105]],
    "361362": [[1, 31]],
    "361363": [[1, 27]],
    "361365": [[1, 489]],
    "361366": [[1, 201]],
    "361400": [[41, 496]],
    "361417": [[38, 1659]],
    "361443": [[40, 2313]],
    "361468": [[3, 1883]],
    "361475": [
      [37, 614],
      [617, 836],
      [838, 838],
      [840, 1121],
      [1124, 1273]
    ],
    "361512": [[36, 849], [851, 1573]],
    "361569": [[35, 598]],
    "361573": [[1, 305]],
    "361579": [[43, 905]],
    "361580": [[1, 422]],
    "361957": [[1, 1163]],
    "361971": [[38, 731], [733, 2381]],
    "361989": [[37, 112], [114, 151]],
    "361990": [[1, 204]],
    "361994": [[1, 116]],
    "362058": [[39, 209]],
    "362059": [[1, 63]],
    "362060": [[1, 83], [85, 85]],
    "362061": [[1, 314]],
    "362062": [[1, 207]],
    "362063": [[1, 70], [77, 92]],
    "362064": [
      [93, 218],
      [220, 508],
      [510, 1067]
    ],
    "362087": [[1, 13], [15, 146]],
    "362091": [[1, 1418]],
    "362104": [[33, 147]],
    "362105": [[1, 179]],
    "362106": [[1, 78]],
    "362107": [[1, 785]],
    "362148": [[39, 758]],
    "362153": [[1, 140]],
    "362154": [[1, 784]],
    "362159": [[29, 35]],
    "362161": [[1, 120]],
    "362163": [[1, 65]],
    "362166": [[1, 331]],
    "362167": [[1, 646]],
    "362437": [[1, 11], [73, 92]],
    "362439": [[8, 34], [249, 1595]],
    "362597": [[1, 139]],
    "362614": [[1, 153]],
    "362615": [[1, 149]],
    "362616": [[1, 351]],
    "362617": [[1, 244]],
    "362618": [[1, 274]],
    "362653": [[40, 305]],
    "362654": [[1, 26]],
    "362655": [
      [1, 140],
      [143, 144],
      [148, 338]
    ],
    "362657": [[1, 198]],
    "362695": [[39, 372]],
    "362696": [
      [1, 1112],
      [1114, 1120],
      [1122, 1124],
      [1126, 1128],
      [1130, 1132],
      [1134, 1140],
      [1142, 1144],
      [1146, 1148],
      [1150, 1152],
      [1154, 1720]
    ],
    "362698": [[1, 374]],
    "362720": [[52, 949]],
    "362727": [[4, 7]],
    "362728": [[1, 388]],
    "362757": [[32, 93]],
    "362758": [[1, 205]],
    "362760": [[1, 728]]
  }