{
    "DYJetsToLL_M-50": [
        "root://cmsxrootd.fnal.gov//store/mc/Run3Summer22EENanoAODv11/DYJetsToLL_M-50_TuneCP5_13p6TeV-madgraphMLM-pythia8/NANOAODSIM/forPOG_126X_mcRun3_2022_realistic_postEE_v1-v1/70000/53a25c82-3fe6-4604-baa5-64d452496373.root",
        "root://cmsxrootd.fnal.gov//store/mc/Run3Summer22EENanoAODv11/DYJetsToLL_M-50_TuneCP5_13p6TeV-madgraphMLM-pythia8/NANOAODSIM/forPOG_126X_mcRun3_2022_realistic_postEE_v1-v1/70000/8d397afd-bcc6-4bb7-a7a6-1b364974b6ef.root",
        "root://cmsxrootd.fnal.gov//store/mc/Run3Summer22EENanoAODv11/DYJetsToLL_M-50_TuneCP5_13p6TeV-madgraphMLM-pythia8/NANOAODSIM/forPOG_126X_mcRun3_2022_realistic_postEE_v1-v1/70000/31e05c53-51e0-4529-b137-ee7e65d4739f.root",
        "root://cmsxrootd.fnal.gov//store/mc/Run3Summer22EENanoAODv11/DYJetsToLL_M-50_TuneCP5_13p6TeV-madgraphMLM-pythia8/NANOAODSIM/forPOG_126X_mcRun3_2022_realistic_postEE_v1-v1/70000/e9ed65fd-7b6a-4b90-8be0-d47149de03a8.root",
        "root://cmsxrootd.fnal.gov//store/mc/Run3Summer22EENanoAODv11/DYJetsToLL_M-50_TuneCP5_13p6TeV-madgraphMLM-pythia8/NANOAODSIM/forPOG_126X_mcRun3_2022_realistic_postEE_v1-v1/70000/96094dc0-4c6f-478a-8b34-e39475c12f6d.root",
        "root://cmsxrootd.fnal.gov//store/mc/Run3Summer22EENanoAODv11/DYJetsToLL_M-50_TuneCP5_13p6TeV-madgraphMLM-pythia8/NANOAODSIM/forPOG_126X_mcRun3_2022_realistic_postEE_v1-v1/70000/697c5da4-e267-49fd-bbc3-019f29b7e927.root",
        "root://cmsxrootd.fnal.gov//store/mc/Run3Summer22EENanoAODv11/DYJetsToLL_M-50_TuneCP5_13p6TeV-madgraphMLM-pythia8/NANOAODSIM/forPOG_126X_mcRun3_2022_realistic_postEE_v1-v1/70000/a45837f9-10d7-488c-a49c-8c24a249a234.root",
        "root://cmsxrootd.fnal.gov//store/mc/Run3Summer22EENanoAODv11/DYJetsToLL_M-50_TuneCP5_13p6TeV-madgraphMLM-pythia8/NANOAODSIM/forPOG_126X_mcRun3_2022_realistic_postEE_v1-v1/70000/01c10cdd-fe0a-4792-9ce0-2c5b919d0c32.root",
        "root://cmsxrootd.fnal.gov//store/mc/Run3Summer22EENanoAODv11/DYJetsToLL_M-50_TuneCP5_13p6TeV-madgraphMLM-pythia8/NANOAODSIM/forPOG_126X_mcRun3_2022_realistic_postEE_v1-v1/70000/7c1b7919-ada4-4197-a9cc-0a1d9dff4758.root",
        "root://cmsxrootd.fnal.gov//store/mc/Run3Summer22EENanoAODv11/DYJetsToLL_M-50_TuneCP5_13p6TeV-madgraphMLM-pythia8/NANOAODSIM/forPOG_126X_mcRun3_2022_realistic_postEE_v1-v1/70000/86cdd661-a89b-4c29-aaa5-0a9d392ad2b9.root",
        "root://cmsxrootd.fnal.gov//store/mc/Run3Summer22EENanoAODv11/DYJetsToLL_M-50_TuneCP5_13p6TeV-madgraphMLM-pythia8/NANOAODSIM/forPOG_126X_mcRun3_2022_realistic_postEE_v1-v1/70000/62a2a138-19f2-4407-8fe5-420ae949b321.root",
        "root://cmsxrootd.fnal.gov//store/mc/Run3Summer22EENanoAODv11/DYJetsToLL_M-50_TuneCP5_13p6TeV-madgraphMLM-pythia8/NANOAODSIM/forPOG_126X_mcRun3_2022_realistic_postEE_v1-v1/70000/0b5acb8d-a02c-4e54-9b20-6f2ee2d74704.root",
        "root://cmsxrootd.fnal.gov//store/mc/Run3Summer22EENanoAODv11/DYJetsToLL_M-50_TuneCP5_13p6TeV-madgraphMLM-pythia8/NANOAODSIM/forPOG_126X_mcRun3_2022_realistic_postEE_v1-v1/70000/7e87a3b2-82ff-4320-8efe-e72a92fb45f4.root",
        "root://cmsxrootd.fnal.gov//store/mc/Run3Summer22EENanoAODv11/DYJetsToLL_M-50_TuneCP5_13p6TeV-madgraphMLM-pythia8/NANOAODSIM/forPOG_126X_mcRun3_2022_realistic_postEE_v1-v1/70000/fb1df8f8-4b0f-4dab-bd19-19d95049e6ca.root",
        "root://cmsxrootd.fnal.gov//store/mc/Run3Summer22EENanoAODv11/DYJetsToLL_M-50_TuneCP5_13p6TeV-madgraphMLM-pythia8/NANOAODSIM/forPOG_126X_mcRun3_2022_realistic_postEE_v1-v1/70000/7a532e4f-81a4-45ca-aa9f-8d0f3e6db12e.root",
        "root://cmsxrootd.fnal.gov//store/mc/Run3Summer22EENanoAODv11/DYJetsToLL_M-50_TuneCP5_13p6TeV-madgraphMLM-pythia8/NANOAODSIM/forPOG_126X_mcRun3_2022_realistic_postEE_v1-v1/70000/40495247-8711-4cbd-8460-bfa295b4ff43.root",
        "root://cmsxrootd.fnal.gov//store/mc/Run3Summer22EENanoAODv11/DYJetsToLL_M-50_TuneCP5_13p6TeV-madgraphMLM-pythia8/NANOAODSIM/forPOG_126X_mcRun3_2022_realistic_postEE_v1-v1/70000/14b00780-4497-41b1-abd1-0a9e1f85c049.root",
        "root://cmsxrootd.fnal.gov//store/mc/Run3Summer22EENanoAODv11/DYJetsToLL_M-50_TuneCP5_13p6TeV-madgraphMLM-pythia8/NANOAODSIM/forPOG_126X_mcRun3_2022_realistic_postEE_v1-v1/70000/245b362d-7c44-432b-b8af-9660c6685a85.root",
        "root://cmsxrootd.fnal.gov//store/mc/Run3Summer22EENanoAODv11/DYJetsToLL_M-50_TuneCP5_13p6TeV-madgraphMLM-pythia8/NANOAODSIM/forPOG_126X_mcRun3_2022_realistic_postEE_v1-v1/70000/bc827dbe-a964-4004-ac74-f3a9ca413b86.root",
        "root://cmsxrootd.fnal.gov//store/mc/Run3Summer22EENanoAODv11/DYJetsToLL_M-50_TuneCP5_13p6TeV-madgraphMLM-pythia8/NANOAODSIM/forPOG_126X_mcRun3_2022_realistic_postEE_v1-v1/70000/496c1226-471d-4f4d-9252-a3e4f554ddf4.root",
        "root://cmsxrootd.fnal.gov//store/mc/Run3Summer22EENanoAODv11/DYJetsToLL_M-50_TuneCP5_13p6TeV-madgraphMLM-pythia8/NANOAODSIM/forPOG_126X_mcRun3_2022_realistic_postEE_v1-v1/70000/ca4e7227-6c22-4cb0-aea4-97138e451cfc.root",
        "root://cmsxrootd.fnal.gov//store/mc/Run3Summer22EENanoAODv11/DYJetsToLL_M-50_TuneCP5_13p6TeV-madgraphMLM-pythia8/NANOAODSIM/forPOG_126X_mcRun3_2022_realistic_postEE_v1-v1/70000/4213b3aa-cf21-4ea6-8917-50e37a2a53fd.root",
        "root://cmsxrootd.fnal.gov//store/mc/Run3Summer22EENanoAODv11/DYJetsToLL_M-50_TuneCP5_13p6TeV-madgraphMLM-pythia8/NANOAODSIM/forPOG_126X_mcRun3_2022_realistic_postEE_v1-v1/70000/a631d23f-d07a-4b16-b499-c935a31aef1a.root",
        "root://cmsxrootd.fnal.gov//store/mc/Run3Summer22EENanoAODv11/DYJetsToLL_M-50_TuneCP5_13p6TeV-madgraphMLM-pythia8/NANOAODSIM/forPOG_126X_mcRun3_2022_realistic_postEE_v1-v1/70000/82bc6fa7-e217-48bf-9715-149ff2b966ed.root",
        "root://cmsxrootd.fnal.gov//store/mc/Run3Summer22EENanoAODv11/DYJetsToLL_M-50_TuneCP5_13p6TeV-madgraphMLM-pythia8/NANOAODSIM/forPOG_126X_mcRun3_2022_realistic_postEE_v1-v1/70000/b695611a-60ff-4f5f-821f-27aef6f4905d.root",
        "root://cmsxrootd.fnal.gov//store/mc/Run3Summer22EENanoAODv11/DYJetsToLL_M-50_TuneCP5_13p6TeV-madgraphMLM-pythia8/NANOAODSIM/forPOG_126X_mcRun3_2022_realistic_postEE_v1-v1/70000/b9ba8d48-ced5-4b09-94a2-7b245d0e3131.root",
        "root://cmsxrootd.fnal.gov//store/mc/Run3Summer22EENanoAODv11/DYJetsToLL_M-50_TuneCP5_13p6TeV-madgraphMLM-pythia8/NANOAODSIM/forPOG_126X_mcRun3_2022_realistic_postEE_v1-v1/70000/2cf21fe6-c153-4176-a25f-fe982b861e02.root",
        "root://cmsxrootd.fnal.gov//store/mc/Run3Summer22EENanoAODv11/DYJetsToLL_M-50_TuneCP5_13p6TeV-madgraphMLM-pythia8/NANOAODSIM/forPOG_126X_mcRun3_2022_realistic_postEE_v1-v1/70000/f94232c4-e59b-4049-bd53-1af2ef681cb8.root",
        "root://cmsxrootd.fnal.gov//store/mc/Run3Summer22EENanoAODv11/DYJetsToLL_M-50_TuneCP5_13p6TeV-madgraphMLM-pythia8/NANOAODSIM/forPOG_126X_mcRun3_2022_realistic_postEE_v1-v1/70000/da9e945c-b7de-4965-b0d1-f552981a263d.root",
        "root://cmsxrootd.fnal.gov//store/mc/Run3Summer22EENanoAODv11/DYJetsToLL_M-50_TuneCP5_13p6TeV-madgraphMLM-pythia8/NANOAODSIM/forPOG_126X_mcRun3_2022_realistic_postEE_v1-v1/70000/5f0aee93-3294-43aa-b12b-fb9e07495c13.root",
        "root://cmsxrootd.fnal.gov//store/mc/Run3Summer22EENanoAODv11/DYJetsToLL_M-50_TuneCP5_13p6TeV-madgraphMLM-pythia8/NANOAODSIM/forPOG_126X_mcRun3_2022_realistic_postEE_v1-v1/70000/165a1eee-70ef-40f0-a0b2-c34ba75ecf82.root",
        "root://cmsxrootd.fnal.gov//store/mc/Run3Summer22EENanoAODv11/DYJetsToLL_M-50_TuneCP5_13p6TeV-madgraphMLM-pythia8/NANOAODSIM/forPOG_126X_mcRun3_2022_realistic_postEE_v1-v1/70000/6a67011c-7284-4de5-a8b7-04a655270062.root",
        "root://cmsxrootd.fnal.gov//store/mc/Run3Summer22EENanoAODv11/DYJetsToLL_M-50_TuneCP5_13p6TeV-madgraphMLM-pythia8/NANOAODSIM/forPOG_126X_mcRun3_2022_realistic_postEE_v1-v1/70000/b55e19a1-9edd-4ffa-bdbf-5e624d10fc34.root",
        "root://cmsxrootd.fnal.gov//store/mc/Run3Summer22EENanoAODv11/DYJetsToLL_M-50_TuneCP5_13p6TeV-madgraphMLM-pythia8/NANOAODSIM/forPOG_126X_mcRun3_2022_realistic_postEE_v1-v1/70000/4398e8f9-7277-41ea-8409-947429d682f5.root",
        "root://cmsxrootd.fnal.gov//store/mc/Run3Summer22EENanoAODv11/DYJetsToLL_M-50_TuneCP5_13p6TeV-madgraphMLM-pythia8/NANOAODSIM/forPOG_126X_mcRun3_2022_realistic_postEE_v1-v1/70000/825e8454-e220-4352-a71e-2c2027a1f279.root",
        "root://cmsxrootd.fnal.gov//store/mc/Run3Summer22EENanoAODv11/DYJetsToLL_M-50_TuneCP5_13p6TeV-madgraphMLM-pythia8/NANOAODSIM/forPOG_126X_mcRun3_2022_realistic_postEE_v1-v1/70000/81bca2e2-057d-454b-a857-7d81b84ae5e8.root",
        "root://cmsxrootd.fnal.gov//store/mc/Run3Summer22EENanoAODv11/DYJetsToLL_M-50_TuneCP5_13p6TeV-madgraphMLM-pythia8/NANOAODSIM/forPOG_126X_mcRun3_2022_realistic_postEE_v1-v1/70000/78888bce-b920-4bc4-b1bd-2323a9a71d40.root",
        "root://cmsxrootd.fnal.gov//store/mc/Run3Summer22EENanoAODv11/DYJetsToLL_M-50_TuneCP5_13p6TeV-madgraphMLM-pythia8/NANOAODSIM/forPOG_126X_mcRun3_2022_realistic_postEE_v1-v1/70000/a893914e-46cc-4fe7-bce1-cefcaf853a8c.root",
        "root://cmsxrootd.fnal.gov//store/mc/Run3Summer22EENanoAODv11/DYJetsToLL_M-50_TuneCP5_13p6TeV-madgraphMLM-pythia8/NANOAODSIM/forPOG_126X_mcRun3_2022_realistic_postEE_v1-v1/70000/9bff3d33-ede5-481b-a8dd-69d042003c23.root",
        "root://cmsxrootd.fnal.gov//store/mc/Run3Summer22EENanoAODv11/DYJetsToLL_M-50_TuneCP5_13p6TeV-madgraphMLM-pythia8/NANOAODSIM/forPOG_126X_mcRun3_2022_realistic_postEE_v1-v1/70000/a90a8418-c8ba-41fe-8982-f93c490627ce.root",
        "root://cmsxrootd.fnal.gov//store/mc/Run3Summer22EENanoAODv11/DYJetsToLL_M-50_TuneCP5_13p6TeV-madgraphMLM-pythia8/NANOAODSIM/forPOG_126X_mcRun3_2022_realistic_postEE_v1-v1/70000/0153df5d-df28-4515-82c2-04f76d82bb34.root",
        "root://cmsxrootd.fnal.gov//store/mc/Run3Summer22EENanoAODv11/DYJetsToLL_M-50_TuneCP5_13p6TeV-madgraphMLM-pythia8/NANOAODSIM/forPOG_126X_mcRun3_2022_realistic_postEE_v1-v1/70000/595fe19f-74f4-43fc-9bc7-f338cb9267ea.root",
        "root://cmsxrootd.fnal.gov//store/mc/Run3Summer22EENanoAODv11/DYJetsToLL_M-50_TuneCP5_13p6TeV-madgraphMLM-pythia8/NANOAODSIM/forPOG_126X_mcRun3_2022_realistic_postEE_v1-v1/70000/d9184a7c-cb33-42e3-bf41-9965160d7dcb.root",
        "root://cmsxrootd.fnal.gov//store/mc/Run3Summer22EENanoAODv11/DYJetsToLL_M-50_TuneCP5_13p6TeV-madgraphMLM-pythia8/NANOAODSIM/forPOG_126X_mcRun3_2022_realistic_postEE_v1-v1/70000/7270081f-a13d-4f49-80c6-618c3443e873.root",
        "root://cmsxrootd.fnal.gov//store/mc/Run3Summer22EENanoAODv11/DYJetsToLL_M-50_TuneCP5_13p6TeV-madgraphMLM-pythia8/NANOAODSIM/forPOG_126X_mcRun3_2022_realistic_postEE_v1-v1/70000/60c1fbd0-c0c8-4d8a-8374-f2fda52c6ccc.root",
        "root://cmsxrootd.fnal.gov//store/mc/Run3Summer22EENanoAODv11/DYJetsToLL_M-50_TuneCP5_13p6TeV-madgraphMLM-pythia8/NANOAODSIM/forPOG_126X_mcRun3_2022_realistic_postEE_v1-v1/70000/3caa2ed6-4b4e-4fbb-a82c-d7bb50f3a064.root",
        "root://cmsxrootd.fnal.gov//store/mc/Run3Summer22EENanoAODv11/DYJetsToLL_M-50_TuneCP5_13p6TeV-madgraphMLM-pythia8/NANOAODSIM/forPOG_126X_mcRun3_2022_realistic_postEE_v1-v1/70000/51ddc10a-de66-4242-8c49-006c37cd7299.root",
        "root://cmsxrootd.fnal.gov//store/mc/Run3Summer22EENanoAODv11/DYJetsToLL_M-50_TuneCP5_13p6TeV-madgraphMLM-pythia8/NANOAODSIM/forPOG_126X_mcRun3_2022_realistic_postEE_v1-v1/70000/9ba486ae-a59a-4d91-abe4-cc4ebb3746e3.root",
        "root://cmsxrootd.fnal.gov//store/mc/Run3Summer22EENanoAODv11/DYJetsToLL_M-50_TuneCP5_13p6TeV-madgraphMLM-pythia8/NANOAODSIM/forPOG_126X_mcRun3_2022_realistic_postEE_v1-v1/70000/b1d07ff6-6ece-4992-af5f-301a4d8250b7.root",
        "root://cmsxrootd.fnal.gov//store/mc/Run3Summer22EENanoAODv11/DYJetsToLL_M-50_TuneCP5_13p6TeV-madgraphMLM-pythia8/NANOAODSIM/forPOG_126X_mcRun3_2022_realistic_postEE_v1-v1/70000/4508b5c8-98fd-4e35-b45e-1e3e9049c49a.root",
        "root://cmsxrootd.fnal.gov//store/mc/Run3Summer22EENanoAODv11/DYJetsToLL_M-50_TuneCP5_13p6TeV-madgraphMLM-pythia8/NANOAODSIM/forPOG_126X_mcRun3_2022_realistic_postEE_v1-v1/70000/5ab275ac-6a5e-4efa-8c7e-1316578f16c8.root",
        "root://cmsxrootd.fnal.gov//store/mc/Run3Summer22EENanoAODv11/DYJetsToLL_M-50_TuneCP5_13p6TeV-madgraphMLM-pythia8/NANOAODSIM/forPOG_126X_mcRun3_2022_realistic_postEE_v1-v1/70000/fc37d9ff-f923-445a-a92a-69526e00c9f0.root",
        "root://cmsxrootd.fnal.gov//store/mc/Run3Summer22EENanoAODv11/DYJetsToLL_M-50_TuneCP5_13p6TeV-madgraphMLM-pythia8/NANOAODSIM/forPOG_126X_mcRun3_2022_realistic_postEE_v1-v1/70000/66f84f25-b528-45a7-8971-8c4e4132247a.root",
        "root://cmsxrootd.fnal.gov//store/mc/Run3Summer22EENanoAODv11/DYJetsToLL_M-50_TuneCP5_13p6TeV-madgraphMLM-pythia8/NANOAODSIM/forPOG_126X_mcRun3_2022_realistic_postEE_v1-v1/70000/de76f189-9243-4ca2-ab3c-95170509f04e.root",
        "root://cmsxrootd.fnal.gov//store/mc/Run3Summer22EENanoAODv11/DYJetsToLL_M-50_TuneCP5_13p6TeV-madgraphMLM-pythia8/NANOAODSIM/forPOG_126X_mcRun3_2022_realistic_postEE_v1-v1/70000/bdb3869c-af2e-4240-b1b5-cdc040362578.root"
    ]
}